bi
nx
0a
xrp
2pz
rd5
uj2
irk
qtv
rus
edm
pgu
knt
mph
xrl
w4n
ekt
r3w
wvf
0d6
srl
p1d
8ot
v0e
1la
vic
b5m
rmv
zqw
gta
hfw
h8d
5zh
fhn
mhg
kji
xvp
5bh
0wg
f6d
tji
pzn
uby
h3t
tp6
5rh
mi4
yqm
lki
u7t
nk1
nk2
7ix
twr
mef
gwj
vsn
wlk
qfz
qmd
cfb
p3j
khp
num
soj
qby
jbv
au4
jlv
x6m
qaz
jag
7od
a2h
0wx
fsy
ngo
j8u
w8f
ic5
xue
q94
4yh
z0z
cgl
wdg
zat
hrv
l12
yia
crv
g3t
9jw
zg7
bkw
int
p2s
gbf
lb6
6bs
hin
bxv
piv
lfo
ch5
eic
hd1
sbg
7qs
dqk
h9a
h8v
zmd
gni
zcd
yib
ef4
9kl
kpu
kuj
gnv
dlz
qwu
pc8
8j6
vei
jlw
vsx
3my
vrd
am8
mk1
dqf
c2d
ewb
sdf
tx5
wdt
ilr
brl
nnj
aep
nr5
d8e
vm3
j6v
jvs
bny
vuk
hnu
xl2
vae
xqa
fpj
xpx
4kt
42f
ghm
4nj
2ez
mfc
b7z
fp2
krt
rqb
7zf
1rt
z7q
ihh
9ri
uuq
9ev
rqe
eiq
f58
yvf
ohq
8mp
hwy
qfp
s2l
sdt
lrv
hgz
kmq
4nz
tu7
dag
wuj
veq
vru
y48
4mf
tmx
xso
dbt
3t1
gzf
l4j
51x
hiq
k3v
ajj
ldz
rxl
h0r
4mb
hhc
c5m
xzq
cz6
inc
8h2
x89
odk
dvk
pdg
rrw
b5n
qhk
hnr
gbr
aoh
sjw
taw
v7o
t91
sde
gek
ztw
in8
gez
zpu
fy2
l8r
8
l
v
o
6
d
t
m
x
u
p
w
b
i
4
1
q
5
r
0
7
s
2
k
f
9
g
c
h
e
a
j
y
z
3
n
8
l
v
o
6
d
t
m
x
u
p
w
b
i
4
1
q
5
r
0
7
s
2
k
f
9
g
c
h
e
a
j
y
z
3
n
bi
nx
0a
xrp
2pz
rd5
uj2
irk
qtv
rus
edm
pgu
knt
mph
xrl
w4n
ekt
r3w
wvf
0d6
srl
p1d
8ot
v0e
1la
vic
b5m
rmv
zqw
gta
hfw
h8d
5zh
fhn
mhg
kji
xvp
5bh
0wg
f6d
tji
pzn
uby
h3t
tp6
5rh
mi4
yqm
lki
u7t
nk1
nk2
7ix
twr
mef
gwj
vsn
wlk
qfz
qmd
cfb
p3j
khp
num
soj
qby
jbv
au4
jlv
x6m
qaz
jag
7od
a2h
0wx
fsy
ngo
j8u
w8f
ic5
xue
q94
4yh
z0z
cgl
wdg
zat
hrv
l12
yia
crv
g3t
9jw
zg7
bkw
int
p2s
gbf
lb6
6bs
hin
bxv
piv
lfo
ch5
eic
hd1
sbg
7qs
dqk
h9a
h8v
zmd
gni
zcd
yib
ef4
9kl
kpu
kuj
gnv
dlz
qwu
pc8
8j6
vei
jlw
vsx
3my
vrd
am8
mk1
dqf
c2d
ewb
sdf
tx5
wdt
ilr
brl
nnj
aep
nr5
d8e
vm3
j6v
jvs
bny
vuk
hnu
xl2
vae
xqa
fpj
xpx
4kt
42f
ghm
4nj
2ez
mfc
b7z
fp2
krt
rqb
7zf
1rt
z7q
ihh
9ri
uuq
9ev
rqe
eiq
f58
yvf
ohq
8mp
hwy
qfp
s2l
sdt
lrv
hgz
kmq
4nz
tu7
dag
wuj
veq
vru
y48
4mf
tmx
xso
dbt
3t1
gzf
l4j
51x
hiq
k3v
ajj
ldz
rxl
h0r
4mb
hhc
c5m
xzq
cz6
inc
8h2
x89
odk
dvk
pdg
rrw
b5n
qhk
hnr
gbr
aoh
sjw
taw
v7o
t91
sde
gek
ztw
in8
gez
zpu
fy2
l8r
sexx
alan
drum
eyes
talk
7894
jake
fdsa
lola
chai
cole
1223
1112
nnnn
bian
funk
3000
lulu
2525
dawn
puta
0911
1134
tito
nico
kiwi
dale
lady
bart
zhai
wolf
dluc
kiss
kiki
1977
chao
5232
coco
jeff
goat
bell
zzzz
jose
1942
xray
1022
dork
yess
zhan
good
1947
twat
abub
shua
2663
barb
burn
tank
arse
1986
tony
nike
2424
ohio
cash
crow
amor
qqqq
2002
dope
tara
1101
dome
mate
rene
mick
bowl
blue
0007
lane
spud
1027
vols
ping
milo
loki
horn
baby
greg
nero
post
diva
hakr
asia
5050
abby
1997
fool
4226
dani
sexe
zhei
1225
0420
oooo
wave
null
kyle
ying
lost
buzz
town
flex
boss
1215
woof
1226
lion
cunt
1221
huai
lkjh
call
lake
1066
1228
luis
zuan
nine
jeep
1224
toad
bill
evan
suan
1126
maya
rose
pang
1130
duan
1025
1515
1973
nong
4you
toni
dave
body
pian
baba
rita
gang
tang
soft
1664
1114
book
pics
cars
wild
1976
9876
bong
high
here
1029
7474
puff
zhao
1111
guns
juju
auto
1965
army
0069
zone
cang
legs
chat
5000
4417
2121
alec
0815
sex1
xian
rick
5252
show
2233
5150
fang
lucy
4128
shun
nope
wang
1236
camp
1357
1233
hand
yyyy
elmo
eddy
fred
west
kate
1967
4121
shuo
mart
2323
cody
ross
loud
2005
teng
land
chan
keng
hugo
pink
chas
huan
zhou
1944
bdsm
gold
colt
tree
room
1970
hate
leng
guan
niao
shop
team
saab
food
1432
3737
2003
away
mark
jazz
dell
sony
todd
skin
7007
mnbv
hard
sean
popo
9898
1128
korn
muff
sara
1812
beck
1968
0000
1900
ryan
1963
ball
smut
5454
jedi
kool
1129
zack
june
1qaz
what
1015
1023
jxu8
play
moto
this
dong
cumm
lick
duke
ruby
ekim
reed
alex
rich
hoes
lang
1987
1002
1971
plum
1222
mail
1210
1945
0123
orgy
4747
hola
heat
audi
2211
1017
zang
chef
ozzy
jiao
blow
ffff
done
gina
6969
nice
film
doug
1960
1122
only
sims
1229
beat
slow
diao
navy
1235
1026
1218
rico
dive
1958
clay
nude
phat
3434
tail
life
sick
four
1208
1020
0001
slim
flip
kobe
ruth
hang
piss
fast
1984
dust
1107
1234
plus
tazz
fire
1985
1219
iron
neon
data
twin
4271
marc
7878
gate
6666
cali
3535
1016
news
bond
goku
toon
zhui
3636
rock
corn
1200
beth
piao
work
kane
spot
vbnm
paul
7890
feet
1776
taco
2000
wars
1125
yong
trip
zeke
russ
andy
1624
1212
1138
guai
6464
titi
theo
race
pick
1989
boat
reno
dirt
suck
1121
teen
2929
papa
real
gigi
axio
5151
3006
user
chou
1701
ship
nuts
xmen
nate
rang
weed
2727
momo
deep
junk
5291
arch
bank
head
fick
mets
foxy
llll
deer
cats
kurt
kume
dirk
shoe
1943
monk
loop
polo
5424
1010
cory
1127
1983
1104
hope
1717
juan
joke
1204
biit
sang
1209
haha
bone
some
pong
best
oreo
leon
4444
fine
king
abcd
page
1019
luke
1202
tits
neil
joel
1975
pimp
2828
shei
1207
hair
1955
5858
1003
bull
devo
qing
2055
1231
fran
sexy
feng
emma
shag
wade
ruan
1030
aaaa
info
line
pepe
karl
5353
ussy
ssss
igor
kirk
mack
5757
jing
4321
love
july
thor
hill
pass
3825
pyon
rrrr
1993
judy
otto
port
2244
2222
peng
1013
acdc
wind
name
yoda
5329
1952
1414
doll
1102
cute
luan
6996
redd
dede
open
mind
full
boyz
trey
tool
bobo
neal
kick
3232
pitt
1369
hans
mega
zeng
alfa
skip
rats
8520
1331
wine
9999
xman
chen
tian
rosa
view
odin
1031
trek
zulu
demo
1949
1994
jack
7734
visa
will
mama
goth
park
1992
ward
4711
drew
1996
4545
echo
1966
dada
soul
5432
chad
2345
niki
quan
more
golf
1988
1961
1211
kkkk
bugs
hall
card
damn
bigd
cubs
vvvv
anal
seng
buck
tong
hawk
john
door
dian
jill
1969
nick
budd
1213
jean
nova
bear
crew
porn
help
xxxx
band
your
cake
cuan
lobo
kram
jimi
poop
cool
eric
long
1021
earl
mine
1948
1492
boot
1120
zhua
wing
joey
hart
jade
yaya
eded
wife
hott
1957
yoyo
cook
look
pool
erin
gong
shao
qdo1
road
1024
mone
silk
8989
1959
tuna
true
coke
sail
pack
acid
shou
rain
1951
huge
2626
1978
ting
2369
last
mang
josh
kids
1919
sexo
benz
roll
worm
jets
ling
chun
anna
carl
farm
slap
mian
1981
paco
babe
yuan
reds
cock
evil
mojo
pork
girl
frog
mars
solo
java
easy
ride
iiii
0101
hell
sand
base
hunt
dude
cows
5555
1964
1220
1007
tina
dumb
tiao
bibi
live
crap
indy
1941
mini
ning
punk
gone
boys
meng
bang
r2d2
2255
game
gary
cola
1009
soup
stud
bobb
3131
mann
fuck
jane
same
ceng
noah
1115
dodo
bing
kent
lian
maxi
joan
word
spam
meow
meat
foot
1999
bird
6789
pete
0987
chip
yogi
bush
acer
1214
luck
mary
nana
jgam
goal
1950
7676
bbbb
1979
kris
1974
come
seth
side
pipe
doom
cold
nian
shui
1616
test
1953
1954
none
nose
hack
pppp
east
uuuu
gray
oral
0660
jian
tttt
lynn
dogs
lolo
city
pony
gene
link
miao
1911
dima
kara
neng
hole
zoom
stan
ella
deal
2500
fish
1962
adam
chui
1995
1008
nash
1028
shot
xuan
1946
doit
1982
phil
butt
wood
bach
rudy
1411
mimi
4200
1103
dddd
gggg
1991
5401
dang
jenn
1205
loco
beta
slam
4242
asdf
nang
beng
khan
1014
clit
1227
5656
7777
shan
buff
1113
cong
hjkl
tech
1478
rewq
1005
dean
puck
caca
rams
4343
boob
4567
milk
1123
site
dank
noel
fart
kuan
hook
1217
1004
pooh
rage
toes
toby
blam
moon
surf
pine
swim
manu
1216
snow
1990
2010
4040
stop
ming
geil
samm
song
glow
bomb
kong
luna
2020
tiny
1818
1117
duck
alui
code
usmc
lips
shit
2004
2277
face
abba
ding
8888
hank
zeus
6669
owen
jump
edge
dick
3728
star
shai
puss
dead
dana
comp
back
zero
load
gogo
flow
bert
hhhh
days
poiu
zhuo
mmmm
list
1469
temp
nuan
rulz
koko
2001
roxy
hong
guru
ivan
1914
zach
toto
rush
qwer
lara
tuan
1011
home
matt
kang
boom
omar
jerk
otis
drop
jjjj
nono
wage
lord
left
1980
2112
troy
aluc
bozo
qiao
big1
liao
1001
zhun
wwww
lori
xmas
1000
shen
weng
gore
case
kill
bike
5683
lock
1956
lust
1972
derf
free
hung
niko
reng
xing
1998
bass
lazy
ring
gman
bite
pump
1313
3way
root
3030
anne
1018
dawg
ynot
2468
five
dino
lisa
opus
slut
tiff
beau
3333
mona
erik
chuo
buds
meme
rong
core
poon
nrao
2469
qian
vamp
bama
2580
jojo
bebe
geng
fear
bean
nina
ajax
5678
beer
jess
hose
cccc
lala
1269
over
wert
zong
1201
down
kuai
sage
dogg
ford
xiao
1012
yang
biao
beef
rice
raul
lite
0311
time
1230
4949
club
zxcv
heng
pain
deng
1245
2501
lily
cleo
hulk
mike
dark
zhen
1124
eeee
brad
fist
seal
maxx
hero
yeah
glen
basil
wifey
lucky
sexxy
sauce
booty
scuba
glock
virus
wwwww
dimas
chief
whore
guess
maxim
micky
renee
tight
isaac
24680
spoon
solar
fire1
india
barks
ralph
wally
liang
aaron
nrosa
robyn
trish
sperm
jelly
gizmo
cocoa
tracy
tical
sober
vince
saint
check
swiss
akira
adult
royal
moses
louis
piggy
bubba
buddy
deuce
watch
phpbb
sheng
terra
jenny
davis
zhuan
stick
flash
willy
sweet
joyce
peace
poker
banks
three
under
marty
goofy
cazzo
women
eight
santa
phone
tramp
daddy
fever
22222
quick
laser
ziggy
magic
fucks
pappy
jesse
faust
smart
touch
asian
venom
fishy
bucks
chewy
howdy
vgirl
squid
prima
munch
japan
toast
plato
photo
extra
dchao
hotel
topaz
hills
grass
cocks
ricky
paula
itsme
rosie
mopar
heels
chino
nikon
light
berry
times
doors
bitch
cisco
kirby
holla
these
wheel
truck
anime
barry
mindy
chloe
smoke
spock
twist
hallo
texas
abstr
final
peach
terry
bucky
jaime
focus
radio
radar
motor
hound
party
prime
evans
court
horny
swing
spawn
spain
balls
13579
11111
rocks
rodeo
nokia
tanya
88888
chico
leigh
idiot
haley
sunny
chris
manga
alpha
jenna
aggie
hippo
diver
harry
carol
young
bones
dylan
jello
sluts
bball
ooooo
woman
divx1
holly
lilly
older
henry
1test
books
carla
alert
links
supra
kitty
anton
march
chaos
pizza
zappa
hover
pippo
white
kevin
ducks
hydro
yoshi
miles
crazy
jacob
roger
yanks
betsy
lover
world
bravo
pussy
busty
tbone
gumbo
litle
hardy
smack
flesh
butch
house
felix
altec
agent
april
duane
quinn
silly
alain
cigar
frank
night
aimee
1love
rsun2
blade
sharp
salsa
troll
loser
wings
trent
astro
sexy1
daisy
susan
whale
luft4
civic
waldo
julie
clean
allie
board
kelly
golf1
david
cards
gomez
intel
micro
heidi
becky
petra
piper
ellie
xiang
pablo
inter
bingo
prick
laura
black
hawks
lance
titty
faith
speed
sadie
sable
dutch
slash
aaman
jones
killa
drake
irene
tower
lizzy
paddy
table
wives
darth
witch
babes
skirt
eeeee
paige
puppy
lemon
punch
playa
sushi
latex
shang
tyler
super
cwoui
cheng
stuff
stars
jesus
peggy
elvis
recon
admin
floyd
spark
brick
nixon
fritz
model
gonzo
boxer
story
wyatt
close
diego
piano
happy
chick
bonzo
candy
sandy
honda
spice
dance
niang
shane
cross
lotus
conan
benny
disco
medic
bryan
hoser
casey
ninja
allen
chase
getit
larry
marsh
blank
3some
nigga
nolan
willi
alcat
vicki
beast
their
strip
jonny
villa
beach
boats
tommy
adams
nitro
ernie
tango
yyyyy
wifes
tuscl
chuan
chuai
muffy
round
tiger
tbird
angel
lback
monty
rocco
pearl
clyde
caleb
alexa
tooth
poppy
devon
kenny
alive
eddie
sonja
clock
ou812
italy
angus
socks
jiang
ganja
satin
dream
xiong
slim4
river
mdogg
janet
fruit
seven
linux
goats
sonic
derek
ocean
bliss
sexxx
becca
logan
xyzzy
frost
devil
music
brady
mario
sambo
edgar
billy
amber
thick
union
abcde
choke
49ers
fucku
mnbvc
ready
trees
brown
marma
jewel
boobs
coors
indon
bfite
class
linda
venus
kings
shark
heavy
astra
homer
woods
blood
dicky
zhang
proxy
bills
julio
test2
kayla
sales
hhhhh
lloyd
ellen
chiks
cyrus
ridge
turbo
blind
drums
leroy
lions
molly
style
fluff
brain
baron
rough
kuang
clint
twins
leeds
weird
gucci
aloha
point
zzzzz
champ
jamie
enter
kkkkk
loves
bowie
ruger
biker
vvvvv
bosco
steel
gates
elmer
bunny
sassy
xxxxx
vides
metoo
polly
bully
skate
creed
osama
buffa
yahoo
staff
alley
henti
quest
sonne
shiva
dolly
tasty
pants
bogus
today
games
ariel
bilbo
karin
zebra
roach
porno
flyer
boots
98765
alone
gkopp
diana
pluto
frodo
4ever
glass
cream
jimmy
blues
block
smurf
bimbo
acura
freee
gator
cyber
love1
guest
fubar
elway
ccccc
aspen
pasta
bear1
corey
shaft
jorge
shoot
forum
tokyo
00000
break
1fuck
wayne
rambo
josie
mike1
sheba
guard
pinto
aaaaa
locks
star1
pride
colts
john1
porky
comet
metal
cosmo
ethan
helen
teddy
misty
britt
field
amiga
alien
james
canon
gypsy
cable
thong
taffy
dummy
start
hoops
dusty
queen
asdfg
legos
salem
zhong
allan
demon
chips
alice
gumby
fffff
aztnm
rhino
heart
caddy
ringo
emily
susie
patti
chair
penis
steph
eatme
trick
lopez
drive
maker
ducky
tupac
jumbo
poopy
doris
stern
doggy
megan
rrrrr
pinky
poets
bacon
blitz
asses
tasha
mango
joung
lewis
fight
betty
strat
total
child
jerky
danni
mouse
flint
wilma
pass1
beans
bill1
maple
small
zhuai
azzer
louie
mocha
cupoi
sigma
qiong
ditto
pusyy
grant
donut
steve
bloke
mason
peter
sport
kinky
nancy
lives
skunk
mpegs
ddddd
freak
great
trewq
rolex
gohan
knife
hanna
blink
awful
pedro
first
rusty
spook
juice
rider
zorro
mikey
fudge
cathy
sheep
misha
coach
wahoo
mafia
shawn
dave1
blunt
paint
sound
sammy
patty
smith
storm
fuck1
juicy
stang
space
robot
dodge
grunt
nikki
invis
blond
burly
stone
moron
north
66666
sally
cutie
train
dante
toons
mazda
puffy
fmale
jason
otter
nasty
drunk
chill
sabre
lydia
rogue
crane
manny
sucks
nadia
slave
butts
cajun
panic
vivid
duffy
sissy
tulip
onion
vette
tyson
paris
bread
annie
moore
yummy
trout
beech
glory
trace
qiang
colin
buick
screw
simon
baura
grils
brett
missy
slick
eric1
ender
nicky
there
baker
loose
guang
gordo
andre
arrow
grace
place
water
pilot
picks
wanda
knock
crack
33333
strap
kerry
funny
mouth
color
mongo
short
chevy
raven
boris
wendy
nurse
bears
wayer
aisan
bambi
zelda
noway
pokey
roman
pixie
dicks
corky
dingo
girsl
edwin
jolly
anita
again
mgund
klaus
frame
timmy
mannn
apple
titan
aside
goten
hairy
kajak
sixty
films
bbbbb
large
cobra
major
jared
howie
erica
iiiii
test1
fatty
woody
ebony
guido
trial
penny
corps
hello
rugby
randy
vixen
shell
jiong
matty
latin
china
sarge
rebel
dixie
meier
binky
dildo
shoes
daffy
image
lamer
honor
cunts
shine
sonia
womam
girls
77777
shuan
oscar
belle
90210
vegas
nnnnn
ellis
audio
mark1
media
power
ollie
erwin
vicky
coral
maine
bobby
chuck
labia
mamas
broad
panda
jonas
benji
vader
bulls
bigal
suede
shaun
judge
vulva
br549
perry
sasha
44444
tomas
plane
chong
uuuuu
sssss
brent
qqqqq
sex69
joker
craig
snoop
cbury
pepsi
stock
scout
donna
video
zheng
greek
rated
zippo
draco
funky
sites
uncle
robin
enjoy
rover
delta
glenn
dawgs
basic
maria
flame
ranch
blue1
ghost
cliff
thing
byron
tahoe
spike
starr
zxcvb
jules
lenny
riley
trans
romeo
fanny
dandy
phish
dizzy
angie
gavin
horse
lkjhg
trust
lllll
goose
aries
spank
tools
trash
mitch
irish
huang
holes
bongo
clips
clark
qwert
earth
camel
rasta
bundy
buffy
lexus
dirty
blaze
hogan
atlas
kappa
naked
poiuy
danny
forme
viper
lager
kathy
talks
sword
satan
green
12345
movie
damon
death
diane
epson
frogs
kojak
jack1
devin
husky
rufus
burns
nudes
ttttt
moose
marie
pitch
fresh
gamma
ultra
volvo
noles
warez
gspot
gabby
tires
sting
teens
racer
brest
patch
force
kimmy
ggggg
belly
shock
skins
store
swift
tales
mandy
score
rocky
money
karen
sfick
julia
55555
chang
vodka
zippy
think
terri
click
lucas
mmmmm
dick1
talon
south
eagle
tribe
clown
bruce
fuzzy
grand
entry
sarah
pinch
senna
roses
cindy
omega
karma
bruno
mommy
stacy
pooky
crown
quake
bella
jazzy
jetta
gecko
cloud
boner
blair
lefty
chess
daman
smile
bogey
celeb
oasis
modem
jigga
spurs
track
99999
casio
month
jerry
eboyd
marco
crave
katie
sugar
dudes
miami
spunk
jjjjj
paper
alvin
craft
honey
shuai
erika
blast
jimbo
hores
razor
giant
simba
state
nomad
brian
gerry
titts
carlo
sonny
monte
brook
mkota
bryce
ppppp
debra
scott
scorn
keith
blake
snake
truth
never
crash
54321
amigo
elite
sleep
right
thumb
metro
orion
tammy
olive
